{
  "base_url": "/user/amalchikhaoui-mt15-2021-tp3-2mppl54r/",
  "hostname": "0.0.0.0",
  "notebook_dir": "/home/jovyan",
  "password": false,
  "pid": 18,
  "port": 8888,
  "secure": false,
  "sock": "",
  "token": "qVdoIy0eSr6elxoiyj1enw",
  "url": "http://0.0.0.0:8888/user/amalchikhaoui-mt15-2021-tp3-2mppl54r/"
}